{
	"routes": [
		{
			"path": "/",
			"auth": "",
			"method": "GET",
			"function": "welcome/Index"
		},
		{
			"path": "/download",
			"auth": "",
			"method": "GET",
			"function": "downloader/Download"
		},
		{
			"path": "/info",
			"auth": "",
			"method": "GET",
			"function": "downloader/VideoInfo"
		},
		{
			"path": "/search",
			"auth": "",
			"method": "GET",
			"function": "downloader/SearchVideo"
		}
	]
}